[ID: 140309644257024] Quedan 7 compras.
.[ID: 140309644257024] Quedan 6 compras.
.[ID: 140309644257024] Quedan 5 compras.
.[ID: 140309644257024] Quedan 4 compras.
.[ID: 140309644257024] Quedan 3 compras.
.[ID: 140309644257024] Quedan 2 compras.
.[ID: 140309644257024] Quedan 1 compras.
.[ID: 140309635864320] Quedan 4 compras.
.[ID: 140309635864320] Quedan 3 compras.
.[ID: 140309635864320] Quedan 2 compras.
.[ID: 140309635864320] Quedan 1 compras.
.